com\slob\aqfw\core\effect\EffectType.class
com\slob\aqfw\core\skill\SkillValueType.class
com\slob\aqfw\core\trigger\TriggerResultType.class
com\slob\aqfw\core\skill\PointType.class
com\slob\aqfw\core\descriptor\CharacterDescriptor$Point.class
com\slob\aqfw\core\descriptor\DialogDescriptor$StatementDescriptor.class
com\slob\aqfw\core\agony\Agony.class
com\slob\aqfw\core\descriptor\SkillDescriptor$Value.class
com\slob\aqfw\core\descriptor\DictionaryDescriptor.class
com\slob\aqfw\core\descriptor\AuraDescriptor.class
com\slob\aqfw\core\descriptor\DialogDescriptor$DialogsDescriptors.class
com\slob\aqfw\core\item\Item.class
com\slob\aqfw\core\descriptor\LevelDescriptor.class
com\slob\aqfw\core\descriptor\DictionaryDescriptor$DictionaryDescriptors.class
com\slob\aqfw\core\descriptor\SkillDescriptor.class
com\slob\aqfw\core\descriptor\ResultDescriptor$ResultsDescriptors.class
com\slob\aqfw\core\skill\SkillTargetsType.class
com\slob\aqfw\core\descriptor\LevelDescriptor$EntityDescriptor.class
com\slob\aqfw\core\entities\Entity.class
com\slob\aqfw\core\cell\Pickable.class
com\slob\aqfw\core\descriptor\AuraDescriptor$AurasDescriptors.class
com\slob\aqfw\core\descriptor\LevelDescriptor$CellDescriptor.class
com\slob\aqfw\core\descriptor\ObstacleDescriptor$Armour.class
com\slob\aqfw\core\descriptor\CharacterDescriptor$Armour.class
com\slob\aqfw\core\descriptor\ObstacleDescriptor.class
com\slob\aqfw\core\descriptor\ResultDescriptor$CellDescriptor.class
com\slob\aqfw\core\descriptor\CharacterDescriptor.class
com\slob\aqfw\core\descriptor\DescriptorFilenameHelper.class
com\slob\aqfw\core\descriptor\GenericDescriptor.class
com\slob\aqfw\core\descriptor\DictionaryDescriptor$Entry.class
com\slob\aqfw\core\cell\HexCreator.class
com\slob\aqfw\core\ai\AI_Type.class
com\slob\aqfw\core\effect\EffectAdditionalValueType.class
com\slob\aqfw\core\descriptor\CharacterDescriptor$CharacterDescriptors.class
com\slob\aqfw\core\descriptor\SkillDescriptor$SkillDescriptors.class
com\slob\aqfw\core\cell\Cell.class
com\slob\aqfw\core\cell\Side.class
com\slob\aqfw\core\descriptor\TriggerDescriptor$TriggersDescriptors.class
com\slob\aqfw\core\descriptor\LevelDescriptor$TriggerDescriptor.class
com\slob\aqfw\core\descriptor\SkillDescriptor$Point.class
com\slob\aqfw\core\trigger\TriggerType.class
com\slob\aqfw\core\descriptor\ObstacleDescriptor$ObstacleDescriptors.class
com\slob\aqfw\core\descriptor\DescriptorRepository.class
com\slob\aqfw\core\descriptor\DialogDescriptor.class
com\slob\aqfw\core\descriptor\ResultDescriptor.class
com\slob\aqfw\core\descriptor\LevelDescriptor$LevelsDescriptors.class
com\slob\aqfw\core\effect\Effect.class
com\slob\aqfw\core\descriptor\TriggerDescriptor.class
com\slob\aqfw\core\skill\Skill.class
com\slob\aqfw\core\descriptor\DescriptorReader.class
com\slob\aqfw\core\descriptor\TriggerDescriptor$CellDescriptor.class
