D:\qb\aQfW\core\src\main\java\com\slob\aqfw\core\descriptor\LevelDescriptor.java
D:\qb\aQfW\core\src\main\java\com\slob\aqfw\core\effect\EffectType.java
D:\qb\aQfW\core\src\main\java\com\slob\aqfw\core\item\Item.java
D:\qb\aQfW\core\src\main\java\com\slob\aqfw\core\skill\PointType.java
D:\qb\aQfW\core\src\main\java\com\slob\aqfw\core\cell\Cell.java
D:\qb\aQfW\core\src\main\java\com\slob\aqfw\core\descriptor\DescriptorReader.java
D:\qb\aQfW\core\src\main\java\com\slob\aqfw\core\descriptor\DictionaryDescriptor.java
D:\qb\aQfW\core\src\main\java\com\slob\aqfw\core\skill\SkillValueType.java
D:\qb\aQfW\core\src\main\java\com\slob\aqfw\core\entities\Entity.java
D:\qb\aQfW\core\src\main\java\com\slob\aqfw\core\descriptor\AuraDescriptor.java
D:\qb\aQfW\core\src\main\java\com\slob\aqfw\core\effect\EffectAdditionalValueType.java
D:\qb\aQfW\core\src\main\java\com\slob\aqfw\core\descriptor\CharacterDescriptor.java
D:\qb\aQfW\core\src\main\java\com\slob\aqfw\core\skill\Skill.java
D:\qb\aQfW\core\src\main\java\com\slob\aqfw\core\ai\AI_Type.java
D:\qb\aQfW\core\src\main\java\com\slob\aqfw\core\descriptor\DialogDescriptor.java
D:\qb\aQfW\core\src\main\java\com\slob\aqfw\core\cell\Pickable.java
D:\qb\aQfW\core\src\main\java\com\slob\aqfw\core\effect\Effect.java
D:\qb\aQfW\core\src\main\java\com\slob\aqfw\core\descriptor\TriggerDescriptor.java
D:\qb\aQfW\core\src\main\java\com\slob\aqfw\core\descriptor\ObstacleDescriptor.java
D:\qb\aQfW\core\src\main\java\com\slob\aqfw\core\skill\SkillTargetsType.java
D:\qb\aQfW\core\src\main\java\com\slob\aqfw\core\descriptor\SkillDescriptor.java
D:\qb\aQfW\core\src\main\java\com\slob\aqfw\core\descriptor\ResultDescriptor.java
D:\qb\aQfW\core\src\main\java\com\slob\aqfw\core\descriptor\GenericDescriptor.java
D:\qb\aQfW\core\src\main\java\com\slob\aqfw\core\agony\Agony.java
D:\qb\aQfW\core\src\main\java\com\slob\aqfw\core\trigger\TriggerResultType.java
D:\qb\aQfW\core\src\main\java\com\slob\aqfw\core\descriptor\DescriptorRepository.java
D:\qb\aQfW\core\src\main\java\com\slob\aqfw\core\trigger\TriggerType.java
D:\qb\aQfW\core\src\main\java\com\slob\aqfw\core\cell\Side.java
D:\qb\aQfW\core\src\main\java\com\slob\aqfw\core\descriptor\DescriptorFilenameHelper.java
D:\qb\aQfW\core\src\main\java\com\slob\aqfw\core\cell\HexCreator.java
